^G:\OOD-PROJECTS\PROJECT4\CODEANALYZEREX\SOCKETS\X64\DEBUG\LOGGER.OBJ|G:\OOD-PROJECTS\PROJECT4\CODEANALYZEREX\SOCKETS\X64\DEBUG\SOCKETS.OBJ|G:\OOD-PROJECTS\PROJECT4\CODEANALYZEREX\SOCKETS\X64\DEBUG\UTILITIES.OBJ|G:\OOD-PROJECTS\PROJECT4\CODEANALYZEREX\SOCKETS\X64\DEBUG\WINDOWSHELPERS.OBJ
G:\OOD-PROJECTS\PROJECT4\CODEANALYZEREX\X64\DEBUG\SOCKETS.ILK
G:\OOD-PROJECTS\PROJECT4\CODEANALYZEREX\X64\DEBUG\SOCKETS.EXE
G:\OOD-PROJECTS\PROJECT4\CODEANALYZEREX\X64\DEBUG\SOCKETS.PDB
