^G:\OOD-PROJECTS\PROJECT4\CODEANALYZEREX\LOGGER\LOGGER.CPP
/c /ZI /nologo /W3 /WX- /sdl /Od /D _DEBUG /D _CONSOLE /D TEST_SCOPESTACK /D _UNICODE /D UNICODE /Gm /EHsc /RTC1 /MDd /GS /fp:precise /Zc:wchar_t /Zc:forScope /Zc:inline /Fo"X64\DEBUG\\" /Fd"X64\DEBUG\SCOPESTACK.PDB" /Gd /TP G:\OOD-PROJECTS\PROJECT4\CODEANALYZEREX\LOGGER\LOGGER.CPP
^G:\OOD-PROJECTS\PROJECT4\CODEANALYZEREX\UTILITIES\UTILITIES.CPP
/c /ZI /nologo /W3 /WX- /sdl /Od /D _DEBUG /D _CONSOLE /D TEST_SCOPESTACK /D _UNICODE /D UNICODE /Gm /EHsc /RTC1 /MDd /GS /fp:precise /Zc:wchar_t /Zc:forScope /Zc:inline /Fo"X64\DEBUG\\" /Fd"X64\DEBUG\SCOPESTACK.PDB" /Gd /TP G:\OOD-PROJECTS\PROJECT4\CODEANALYZEREX\UTILITIES\UTILITIES.CPP
^G:\OOD-PROJECTS\PROJECT4\CODEANALYZEREX\SCOPESTACK\SCOPESTACK.CPP
/c /ZI /nologo /W3 /WX- /sdl /Od /D _DEBUG /D _CONSOLE /D TEST_SCOPESTACK /D _UNICODE /D UNICODE /Gm /EHsc /RTC1 /MDd /GS /fp:precise /Zc:wchar_t /Zc:forScope /Zc:inline /Fo"X64\DEBUG\\" /Fd"X64\DEBUG\SCOPESTACK.PDB" /Gd /TP G:\OOD-PROJECTS\PROJECT4\CODEANALYZEREX\SCOPESTACK\SCOPESTACK.CPP
