^G:\OOD-PROJECTS\PROJECT4\CODEANALYZEREX\FILESYSTEM\FILESYSTEM.CPP|G:\OOD-PROJECTS\PROJECT4\CODEANALYZEREX\HTTPMESSAGE\HTTPMESSAGE.CPP|G:\OOD-PROJECTS\PROJECT4\CODEANALYZEREX\LOGGER\LOGGER.CPP|G:\OOD-PROJECTS\PROJECT4\CODEANALYZEREX\MOCKCHANNEL\CPP11-BLOCKINGQUEUE.CPP|G:\OOD-PROJECTS\PROJECT4\CODEANALYZEREX\MOCKCHANNEL\MOCKCHANNEL.CPP|G:\OOD-PROJECTS\PROJECT4\CODEANALYZEREX\MSGCLIENT\MSGCLIENT.CPP|G:\OOD-PROJECTS\PROJECT4\CODEANALYZEREX\SOCKETS\SOCKETS.CPP|G:\OOD-PROJECTS\PROJECT4\CODEANALYZEREX\UTILITIES\UTILITIES.CPP
G:\OOD-PROJECTS\PROJECT4\CODEANALYZEREX\MOCKCHANNEL\DEBUG\VC140.PDB
G:\OOD-PROJECTS\PROJECT4\CODEANALYZEREX\MOCKCHANNEL\DEBUG\VC140.IDB
G:\OOD-PROJECTS\PROJECT4\CODEANALYZEREX\MOCKCHANNEL\DEBUG\FILESYSTEM.OBJ
G:\OOD-PROJECTS\PROJECT4\CODEANALYZEREX\MOCKCHANNEL\DEBUG\HTTPMESSAGE.OBJ
G:\OOD-PROJECTS\PROJECT4\CODEANALYZEREX\MOCKCHANNEL\DEBUG\LOGGER.OBJ
G:\OOD-PROJECTS\PROJECT4\CODEANALYZEREX\MOCKCHANNEL\DEBUG\MSGCLIENT.OBJ
G:\OOD-PROJECTS\PROJECT4\CODEANALYZEREX\MOCKCHANNEL\DEBUG\SOCKETS.OBJ
G:\OOD-PROJECTS\PROJECT4\CODEANALYZEREX\MOCKCHANNEL\DEBUG\UTILITIES.OBJ
G:\OOD-PROJECTS\PROJECT4\CODEANALYZEREX\MOCKCHANNEL\DEBUG\CPP11-BLOCKINGQUEUE.OBJ
G:\OOD-PROJECTS\PROJECT4\CODEANALYZEREX\MOCKCHANNEL\DEBUG\MOCKCHANNEL.OBJ
^G:\OOD-PROJECTS\PROJECT4\CODEANALYZEREX\FILESYSTEM\FILESYSTEM.CPP
G:\OOD-PROJECTS\PROJECT4\CODEANALYZEREX\MOCKCHANNEL\DEBUG\VC140.PDB
^G:\OOD-PROJECTS\PROJECT4\CODEANALYZEREX\HTTPMESSAGE\HTTPMESSAGE.CPP
G:\OOD-PROJECTS\PROJECT4\CODEANALYZEREX\MOCKCHANNEL\DEBUG\VC140.PDB
^G:\OOD-PROJECTS\PROJECT4\CODEANALYZEREX\LOGGER\LOGGER.CPP
G:\OOD-PROJECTS\PROJECT4\CODEANALYZEREX\MOCKCHANNEL\DEBUG\VC140.PDB
^G:\OOD-PROJECTS\PROJECT4\CODEANALYZEREX\MSGCLIENT\MSGCLIENT.CPP
G:\OOD-PROJECTS\PROJECT4\CODEANALYZEREX\MOCKCHANNEL\DEBUG\VC140.PDB
^G:\OOD-PROJECTS\PROJECT4\CODEANALYZEREX\SOCKETS\SOCKETS.CPP
G:\OOD-PROJECTS\PROJECT4\CODEANALYZEREX\MOCKCHANNEL\DEBUG\VC140.PDB
^G:\OOD-PROJECTS\PROJECT4\CODEANALYZEREX\UTILITIES\UTILITIES.CPP
G:\OOD-PROJECTS\PROJECT4\CODEANALYZEREX\MOCKCHANNEL\DEBUG\VC140.PDB
^G:\OOD-PROJECTS\PROJECT4\CODEANALYZEREX\MOCKCHANNEL\CPP11-BLOCKINGQUEUE.CPP
G:\OOD-PROJECTS\PROJECT4\CODEANALYZEREX\MOCKCHANNEL\DEBUG\VC140.PDB
^G:\OOD-PROJECTS\PROJECT4\CODEANALYZEREX\MOCKCHANNEL\MOCKCHANNEL.CPP
G:\OOD-PROJECTS\PROJECT4\CODEANALYZEREX\MOCKCHANNEL\DEBUG\VC140.PDB
