^G:\OOD-PROJECTS\PROJECT4\CODEANALYZEREX\UTILITIES\UTILITIES.CPP
G:\OOD-PROJECTS\PROJECT4\CODEANALYZEREX\UTILITIES\X64\DEBUG\UTILITIES.PDB
G:\OOD-PROJECTS\PROJECT4\CODEANALYZEREX\UTILITIES\X64\DEBUG\UTILITIES.IDB
G:\OOD-PROJECTS\PROJECT4\CODEANALYZEREX\UTILITIES\X64\DEBUG\UTILITIES.OBJ
