^G:\OOD-PROJECTS\PROJECT4\CODEANALYZEREX\HTTPMESSAGE\HTTPMESSAGE.CPP|G:\OOD-PROJECTS\PROJECT4\CODEANALYZEREX\UTILITIES\UTILITIES.CPP
G:\OOD-PROJECTS\PROJECT4\CODEANALYZEREX\HTTPMESSAGE\X64\DEBUG\HTTPMESSAGE.PDB
G:\OOD-PROJECTS\PROJECT4\CODEANALYZEREX\HTTPMESSAGE\X64\DEBUG\HTTPMESSAGE.IDB
G:\OOD-PROJECTS\PROJECT4\CODEANALYZEREX\HTTPMESSAGE\X64\DEBUG\UTILITIES.OBJ
G:\OOD-PROJECTS\PROJECT4\CODEANALYZEREX\HTTPMESSAGE\X64\DEBUG\HTTPMESSAGE.OBJ
^G:\OOD-PROJECTS\PROJECT4\CODEANALYZEREX\UTILITIES\UTILITIES.CPP
G:\OOD-PROJECTS\PROJECT4\CODEANALYZEREX\HTTPMESSAGE\X64\DEBUG\HTTPMESSAGE.PDB
^G:\OOD-PROJECTS\PROJECT4\CODEANALYZEREX\HTTPMESSAGE\HTTPMESSAGE.CPP
G:\OOD-PROJECTS\PROJECT4\CODEANALYZEREX\HTTPMESSAGE\X64\DEBUG\HTTPMESSAGE.PDB
