^G:\OOD-PROJECTS\PROJECT4\CODEANALYZEREX\FILESYSTEM\FILESYSTEM.CPP|G:\OOD-PROJECTS\PROJECT4\CODEANALYZEREX\HTTPMESSAGE\HTTPMESSAGE.CPP|G:\OOD-PROJECTS\PROJECT4\CODEANALYZEREX\LOGGER\LOGGER.CPP|G:\OOD-PROJECTS\PROJECT4\CODEANALYZEREX\MSGCLIENT\MSGCLIENT.CPP|G:\OOD-PROJECTS\PROJECT4\CODEANALYZEREX\SOCKETS\SOCKETS.CPP|G:\OOD-PROJECTS\PROJECT4\CODEANALYZEREX\UTILITIES\UTILITIES.CPP
G:\OOD-PROJECTS\PROJECT4\CODEANALYZEREX\MSGCLIENT\X64\DEBUG\VC140.PDB
G:\OOD-PROJECTS\PROJECT4\CODEANALYZEREX\MSGCLIENT\X64\DEBUG\VC140.IDB
G:\OOD-PROJECTS\PROJECT4\CODEANALYZEREX\MSGCLIENT\X64\DEBUG\FILESYSTEM.OBJ
G:\OOD-PROJECTS\PROJECT4\CODEANALYZEREX\MSGCLIENT\X64\DEBUG\HTTPMESSAGE.OBJ
G:\OOD-PROJECTS\PROJECT4\CODEANALYZEREX\MSGCLIENT\X64\DEBUG\LOGGER.OBJ
G:\OOD-PROJECTS\PROJECT4\CODEANALYZEREX\MSGCLIENT\X64\DEBUG\SOCKETS.OBJ
G:\OOD-PROJECTS\PROJECT4\CODEANALYZEREX\MSGCLIENT\X64\DEBUG\UTILITIES.OBJ
G:\OOD-PROJECTS\PROJECT4\CODEANALYZEREX\MSGCLIENT\X64\DEBUG\MSGCLIENT.OBJ
^G:\OOD-PROJECTS\PROJECT4\CODEANALYZEREX\FILESYSTEM\FILESYSTEM.CPP
G:\OOD-PROJECTS\PROJECT4\CODEANALYZEREX\MSGCLIENT\X64\DEBUG\VC140.PDB
^G:\OOD-PROJECTS\PROJECT4\CODEANALYZEREX\HTTPMESSAGE\HTTPMESSAGE.CPP
G:\OOD-PROJECTS\PROJECT4\CODEANALYZEREX\MSGCLIENT\X64\DEBUG\VC140.PDB
^G:\OOD-PROJECTS\PROJECT4\CODEANALYZEREX\LOGGER\LOGGER.CPP
G:\OOD-PROJECTS\PROJECT4\CODEANALYZEREX\MSGCLIENT\X64\DEBUG\VC140.PDB
^G:\OOD-PROJECTS\PROJECT4\CODEANALYZEREX\SOCKETS\SOCKETS.CPP
G:\OOD-PROJECTS\PROJECT4\CODEANALYZEREX\MSGCLIENT\X64\DEBUG\VC140.PDB
^G:\OOD-PROJECTS\PROJECT4\CODEANALYZEREX\UTILITIES\UTILITIES.CPP
G:\OOD-PROJECTS\PROJECT4\CODEANALYZEREX\MSGCLIENT\X64\DEBUG\VC140.PDB
^G:\OOD-PROJECTS\PROJECT4\CODEANALYZEREX\MSGCLIENT\MSGCLIENT.CPP
G:\OOD-PROJECTS\PROJECT4\CODEANALYZEREX\MSGCLIENT\X64\DEBUG\VC140.PDB
