^G:\OOD-PROJECTS\PROJECT4\CODEANALYZEREX\UTILITIES\UTILITIES.CPP
/c /ZI /nologo /W3 /WX- /sdl /Od /D WIN32 /D _DEBUG /D _WINDOWS /D TEST_TOKENIZER /D _UNICODE /D UNICODE /Gm /EHsc /RTC1 /MDd /GS /fp:precise /Zc:wchar_t /Zc:forScope /Zc:inline /Fo"X64\DEBUG\\" /Fd"X64\DEBUG\TOKENIZER.PDB" /Gd /TP G:\OOD-PROJECTS\PROJECT4\CODEANALYZEREX\UTILITIES\UTILITIES.CPP
^G:\OOD-PROJECTS\PROJECT4\CODEANALYZEREX\TOKENIZER\TOKENIZER.CPP
/c /ZI /nologo /W3 /WX- /sdl /Od /D WIN32 /D _DEBUG /D _WINDOWS /D TEST_TOKENIZER /D _UNICODE /D UNICODE /Gm /EHsc /RTC1 /MDd /GS /fp:precise /Zc:wchar_t /Zc:forScope /Zc:inline /Fo"X64\DEBUG\\" /Fd"X64\DEBUG\TOKENIZER.PDB" /Gd /TP G:\OOD-PROJECTS\PROJECT4\CODEANALYZEREX\TOKENIZER\TOKENIZER.CPP
