^G:\OOD-PROJECTS\PROJECT4\CODEANALYZEREX\FILESYSTEM\FILESYSTEM.CPP
/c /ZI /nologo /W3 /WX- /sdl /Od /D WIN32 /D _DEBUG /D _CONSOLE /D _LIB /D _WINDLL /D _UNICODE /D UNICODE /Gm /EHsc /RTC1 /MDd /GS /fp:precise /Zc:wchar_t /Zc:forScope /Zc:inline /Fo"X64\DEBUG\\" /Fd"X64\DEBUG\VC140.PDB" /Gd /TP G:\OOD-PROJECTS\PROJECT4\CODEANALYZEREX\FILESYSTEM\FILESYSTEM.CPP
^G:\OOD-PROJECTS\PROJECT4\CODEANALYZEREX\HTTPMESSAGE\HTTPMESSAGE.CPP
/c /ZI /nologo /W3 /WX- /sdl /Od /D WIN32 /D _DEBUG /D _CONSOLE /D _LIB /D _WINDLL /D _UNICODE /D UNICODE /Gm /EHsc /RTC1 /MDd /GS /fp:precise /Zc:wchar_t /Zc:forScope /Zc:inline /Fo"X64\DEBUG\\" /Fd"X64\DEBUG\VC140.PDB" /Gd /TP G:\OOD-PROJECTS\PROJECT4\CODEANALYZEREX\HTTPMESSAGE\HTTPMESSAGE.CPP
^G:\OOD-PROJECTS\PROJECT4\CODEANALYZEREX\LOGGER\LOGGER.CPP
/c /ZI /nologo /W3 /WX- /sdl /Od /D WIN32 /D _DEBUG /D _CONSOLE /D _LIB /D _WINDLL /D _UNICODE /D UNICODE /Gm /EHsc /RTC1 /MDd /GS /fp:precise /Zc:wchar_t /Zc:forScope /Zc:inline /Fo"X64\DEBUG\\" /Fd"X64\DEBUG\VC140.PDB" /Gd /TP G:\OOD-PROJECTS\PROJECT4\CODEANALYZEREX\LOGGER\LOGGER.CPP
^G:\OOD-PROJECTS\PROJECT4\CODEANALYZEREX\MSGCLIENT\MSGCLIENT.CPP
/c /ZI /nologo /W3 /WX- /sdl /Od /D WIN32 /D _DEBUG /D _CONSOLE /D _LIB /D _WINDLL /D _UNICODE /D UNICODE /Gm /EHsc /RTC1 /MDd /GS /fp:precise /Zc:wchar_t /Zc:forScope /Zc:inline /Fo"X64\DEBUG\\" /Fd"X64\DEBUG\VC140.PDB" /Gd /TP G:\OOD-PROJECTS\PROJECT4\CODEANALYZEREX\MSGCLIENT\MSGCLIENT.CPP
^G:\OOD-PROJECTS\PROJECT4\CODEANALYZEREX\SOCKETS\SOCKETS.CPP
/c /ZI /nologo /W3 /WX- /sdl /Od /D WIN32 /D _DEBUG /D _CONSOLE /D _LIB /D _WINDLL /D _UNICODE /D UNICODE /Gm /EHsc /RTC1 /MDd /GS /fp:precise /Zc:wchar_t /Zc:forScope /Zc:inline /Fo"X64\DEBUG\\" /Fd"X64\DEBUG\VC140.PDB" /Gd /TP G:\OOD-PROJECTS\PROJECT4\CODEANALYZEREX\SOCKETS\SOCKETS.CPP
^G:\OOD-PROJECTS\PROJECT4\CODEANALYZEREX\UTILITIES\UTILITIES.CPP
/c /ZI /nologo /W3 /WX- /sdl /Od /D WIN32 /D _DEBUG /D _CONSOLE /D _LIB /D _WINDLL /D _UNICODE /D UNICODE /Gm /EHsc /RTC1 /MDd /GS /fp:precise /Zc:wchar_t /Zc:forScope /Zc:inline /Fo"X64\DEBUG\\" /Fd"X64\DEBUG\VC140.PDB" /Gd /TP G:\OOD-PROJECTS\PROJECT4\CODEANALYZEREX\UTILITIES\UTILITIES.CPP
^G:\OOD-PROJECTS\PROJECT4\CODEANALYZEREX\MOCKCHANNEL\CPP11-BLOCKINGQUEUE.CPP
/c /ZI /nologo /W3 /WX- /sdl /Od /D WIN32 /D _DEBUG /D _CONSOLE /D _LIB /D _WINDLL /D _UNICODE /D UNICODE /Gm /EHsc /RTC1 /MDd /GS /fp:precise /Zc:wchar_t /Zc:forScope /Zc:inline /Fo"X64\DEBUG\\" /Fd"X64\DEBUG\VC140.PDB" /Gd /TP G:\OOD-PROJECTS\PROJECT4\CODEANALYZEREX\MOCKCHANNEL\CPP11-BLOCKINGQUEUE.CPP
^G:\OOD-PROJECTS\PROJECT4\CODEANALYZEREX\MOCKCHANNEL\MOCKCHANNEL.CPP
/c /ZI /nologo /W3 /WX- /sdl /Od /D WIN32 /D _DEBUG /D _CONSOLE /D _LIB /D _WINDLL /D _UNICODE /D UNICODE /Gm /EHsc /RTC1 /MDd /GS /fp:precise /Zc:wchar_t /Zc:forScope /Zc:inline /Fo"X64\DEBUG\\" /Fd"X64\DEBUG\VC140.PDB" /Gd /TP G:\OOD-PROJECTS\PROJECT4\CODEANALYZEREX\MOCKCHANNEL\MOCKCHANNEL.CPP
