^G:\OOD-PROJECTS\PROJECT4\CODEANALYZEREX\FILESYSTEM\FILESYSTEM.CPP
/c /ZI /nologo /W3 /WX- /sdl /Od /D WIN32 /D _DEBUG /D _CONSOLE /D _LIB /D TEST_FILEMGR /D _UNICODE /D UNICODE /Gm /EHsc /RTC1 /MDd /GS /fp:precise /Zc:wchar_t /Zc:forScope /Zc:inline /Fo"X64\DEBUG\\" /Fd"X64\DEBUG\FILEMGR.PDB" /Gd /TP G:\OOD-PROJECTS\PROJECT4\CODEANALYZEREX\FILESYSTEM\FILESYSTEM.CPP
^G:\OOD-PROJECTS\PROJECT4\CODEANALYZEREX\FILEMGR\FILEMGR.CPP
/c /ZI /nologo /W3 /WX- /sdl /Od /D WIN32 /D _DEBUG /D _CONSOLE /D _LIB /D TEST_FILEMGR /D _UNICODE /D UNICODE /Gm /EHsc /RTC1 /MDd /GS /fp:precise /Zc:wchar_t /Zc:forScope /Zc:inline /Fo"X64\DEBUG\\" /Fd"X64\DEBUG\FILEMGR.PDB" /Gd /TP G:\OOD-PROJECTS\PROJECT4\CODEANALYZEREX\FILEMGR\FILEMGR.CPP
